{
  "bills": [
    {
      "congress": 118,
      "latestAction": {
        "actionDate": "2023-11-02",
        "text": "Read twice and referred to the Committee on Finance."
      },
      "number": "3224",
      "originChamber": "Senate",
      "originChamberCode": "S",
      "title": "Chronic Disease Flexible Coverage Act",
      "type": "S",
      "updateDate": "2024-10-21",
      "updateDateIncludingText": "2024-10-21",
      "url": "https://api.congress.gov/v3/bill/118/s/3224?format=json"
    },
    {
      "congress": 118,
      "latestAction": {
        "actionDate": "2023-08-15",
        "text": "Referred to the House Committee on Ways and Means."
      },
      "number": "5208",
      "originChamber": "House",
      "originChamberCode": "H",
      "title": "Health Care Provider Shortage Minimization Act of 2023",
      "type": "HR",
      "updateDate": "2024-10-21",
      "updateDateIncludingText": "2024-10-21",
      "url": "https://api.congress.gov/v3/bill/118/hr/5208?format=json"
    },
    {
      "congress": 118,
      "latestAction": {
        "actionDate": "2024-09-17",
        "text": "Placed on the Union Calendar, Calendar No. 579."
      },
      "number": "9489",
      "originChamber": "House",
      "originChamberCode": "H",
      "title": "Advisory Committee on the Records of Congress Sunset Act of 2024",
      "type": "HR",
      "updateDate": "2024-10-21",
      "updateDateIncludingText": "2024-10-21",
      "url": "https://api.congress.gov/v3/bill/118/hr/9489?format=json"
    },
    {
      "congress": 118,
      "latestAction": {
        "actionDate": "2024-08-01",
        "text": "Placed on Senate Legislative Calendar under General Orders. Calendar No. 476."
      },
      "number": "2086",
      "originChamber": "Senate",
      "originChamberCode": "S",
      "title": "Sea Turtle Rescue Assistance and Rehabilitation Act of 2023",
      "type": "S",
      "updateDate": "2024-10-21",
      "updateDateIncludingText": "2024-10-21",
      "url": "https://api.congress.gov/v3/bill/118/s/2086?format=json"
    },
    {
      "congress": 118,
      "latestAction": {
        "actionDate": "2024-09-11",
        "text": "Ordered to be Reported by Voice Vote."
      },
      "number": "9458",
      "originChamber": "House",
      "originChamberCode": "H",
      "title": "Enhancing Stakeholder Support and Outreach for Preparedness Grants Act",
      "type": "HR",
      "updateDate": "2024-10-21",
      "updateDateIncludingText": "2024-10-21",
      "url": "https://api.congress.gov/v3/bill/118/hr/9458?format=json"
    },
    {
      "congress": 118,
      "latestAction": {
        "actionDate": "2024-09-11",
        "text": "Ordered to be Reported in the Nature of a Substitute (Amended) by the Yeas and Nays: 22 - 16."
      },
      "number": "190",
      "originChamber": "House",
      "originChamberCode": "H",
      "title": "Saving Gig Economy Taxpayers Act",
      "type": "HR",
      "updateDate": "2024-10-21",
      "updateDateIncludingText": "2024-10-21",
      "url": "https://api.congress.gov/v3/bill/118/hr/190?format=json"
    },
    {
      "congress": 118,
      "latestAction": {
        "actionDate": "2024-09-18",
        "text": "Ordered to be Reported by Voice Vote."
      },
      "number": "6083",
      "originChamber": "House",
      "originChamberCode": "H",
      "title": "Duplications of Benefits Victims Relief Act",
      "type": "HR",
      "updateDate": "2024-10-21",
      "updateDateIncludingText": "2024-10-21",
      "url": "https://api.congress.gov/v3/bill/118/hr/6083?format=json"
    },
    {
      "congress": 118,
      "latestAction": {
        "actionDate": "2024-10-18",
        "text": "Referred to the House Committee on Energy and Commerce."
      },
      "number": "211",
      "originChamber": "House",
      "originChamberCode": "H",
      "title": "Providing for congressional disapproval under chapter 8 of title 5, United States Code, of the rule submitted by the Federal Communications Commission relating to \"The Emergency Alert System and Wireless Emergency Alerts\".",
      "type": "HJRES",
      "updateDate": "2024-10-21",
      "updateDateIncludingText": "2024-10-21",
      "url": "https://api.congress.gov/v3/bill/118/hjres/211?format=json"
    },
    {
      "congress": 118,
      "latestAction": {
        "actionDate": "2024-09-25",
        "text": "Read twice and referred to the Committee on Commerce, Science, and Transportation."
      },
      "number": "5238",
      "originChamber": "Senate",
      "originChamberCode": "S",
      "title": "Ending Passenger Rail Forced Arbitration Act",
      "type": "S",
      "updateDate": "2024-10-21",
      "updateDateIncludingText": "2024-10-21",
      "url": "https://api.congress.gov/v3/bill/118/s/5238?format=json"
    },
    {
      "congress": 118,
      "latestAction": {
        "actionDate": "2024-06-26",
        "text": "Referred to the Subcommittee on Highways and Transit."
      },
      "number": "8823",
      "originChamber": "House",
      "originChamberCode": "H",
      "title": "Clear the ROADS Act of 2024",
      "type": "HR",
      "updateDate": "2024-10-21",
      "updateDateIncludingText": "2024-10-21",
      "url": "https://api.congress.gov/v3/bill/118/hr/8823?format=json"
    },
    {
      "congress": 118,
      "latestAction": {
        "actionDate": "2024-07-24",
        "text": "Referred to the House Committee on the Judiciary."
      },
      "number": "9117",
      "originChamber": "House",
      "originChamberCode": "H",
      "title": "No Visas for Violent Criminals Act",
      "type": "HR",
      "updateDate": "2024-10-21",
      "updateDateIncludingText": "2024-10-21",
      "url": "https://api.congress.gov/v3/bill/118/hr/9117?format=json"
    },
    {
      "congress": 118,
      "latestAction": {
        "actionDate": "2024-07-24",
        "text": "Read twice and referred to the Committee on the Judiciary."
      },
      "number": "4756",
      "originChamber": "Senate",
      "originChamberCode": "S",
      "title": "No Visas for Violent Criminals Act",
      "type": "S",
      "updateDate": "2024-10-21",
      "updateDateIncludingText": "2024-10-21",
      "url": "https://api.congress.gov/v3/bill/118/s/4756?format=json"
    },
    {
      "congress": 118,
      "latestAction": {
        "actionDate": "2024-09-25",
        "text": "Read twice and referred to the Committee on Environment and Public Works."
      },
      "number": "5241",
      "originChamber": "Senate",
      "originChamberCode": "S",
      "title": "EDA Short Form Application Act",
      "type": "S",
      "updateDate": "2024-10-21",
      "updateDateIncludingText": "2024-10-21",
      "url": "https://api.congress.gov/v3/bill/118/s/5241?format=json"
    },
    {
      "congress": 118,
      "latestAction": {
        "actionDate": "2024-09-27",
        "text": "Referred to the House Committee on Energy and Commerce."
      },
      "number": "9885",
      "originChamber": "House",
      "originChamberCode": "H",
      "title": "Nationwide Consumer and Fuel Retailer Choice Act of 2024",
      "type": "HR",
      "updateDate": "2024-10-21",
      "updateDateIncludingText": "2024-10-21",
      "url": "https://api.congress.gov/v3/bill/118/hr/9885?format=json"
    },
    {
      "congress": 118,
      "latestAction": {
        "actionDate": "2023-03-14",
        "text": "Read twice and referred to the Committee on Environment and Public Works."
      },
      "number": "785",
      "originChamber": "Senate",
      "originChamberCode": "S",
      "title": "Consumer and Fuel Retailer Choice Act of 2023",
      "type": "S",
      "updateDate": "2024-10-21",
      "updateDateIncludingText": "2024-10-21",
      "url": "https://api.congress.gov/v3/bill/118/s/785?format=json"
    },
    {
      "congress": 118,
      "latestAction": {
        "actionDate": "2023-07-27",
        "text": "Read twice and referred to the Committee on Environment and Public Works."
      },
      "number": "2707",
      "originChamber": "Senate",
      "originChamberCode": "S",
      "title": "Nationwide Consumer and Fuel Retailer Choice Act of 2023",
      "type": "S",
      "updateDate": "2024-10-21",
      "updateDateIncludingText": "2024-10-21",
      "url": "https://api.congress.gov/v3/bill/118/s/2707?format=json"
    },
    {
      "congress": 118,
      "latestAction": {
        "actionDate": "2023-03-24",
        "text": "Referred to the Subcommittee on Environment, Manufacturing, and Critical Materials."
      },
      "number": "1608",
      "originChamber": "House",
      "originChamberCode": "H",
      "title": "Consumer and Fuel Retailer Choice Act of 2023",
      "type": "HR",
      "updateDate": "2024-10-21",
      "updateDateIncludingText": "2024-10-21",
      "url": "https://api.congress.gov/v3/bill/118/hr/1608?format=json"
    },
    {
      "congress": 118,
      "latestAction": {
        "actionDate": "2024-09-25",
        "text": "Read twice and referred to the Committee on Energy and Natural Resources."
      },
      "number": "5259",
      "originChamber": "Senate",
      "originChamberCode": "S",
      "title": "Community Solar Consumer Choice Act of 2024",
      "type": "S",
      "updateDate": "2024-10-21",
      "updateDateIncludingText": "2024-10-21",
      "url": "https://api.congress.gov/v3/bill/118/s/5259?format=json"
    },
    {
      "congress": 118,
      "latestAction": {
        "actionDate": "2023-04-20",
        "text": "Referred to the Committee on Energy and Commerce, and in addition to the Committee on Oversight and Accountability, for a period to be subsequently determined by the Speaker, in each case for consideration of such provisions as fall within the jurisdiction of the committee concerned."
      },
      "number": "2751",
      "originChamber": "House",
      "originChamberCode": "H",
      "title": "Community Solar Consumer Choice Act of 2023",
      "type": "HR",
      "updateDate": "2024-10-21",
      "updateDateIncludingText": "2024-10-21",
      "url": "https://api.congress.gov/v3/bill/118/hr/2751?format=json"
    },
    {
      "congress": 118,
      "latestAction": {
        "actionDate": "2024-09-27",
        "text": "Referred to the Committee on Energy and Commerce, and in addition to the Committee on Transportation and Infrastructure, for a period to be subsequently determined by the Speaker, in each case for consideration of such provisions as fall within the jurisdiction of the committee concerned."
      },
      "number": "9888",
      "originChamber": "House",
      "originChamberCode": "H",
      "title": "To direct the Secretary of Transportation to update guidance for the National Electric Vehicle Infrastructure Formula Program to increase the flexibility of States related to the location of electric vehicle charging infrastructure, and for other purposes.",
      "type": "HR",
      "updateDate": "2024-10-21",
      "updateDateIncludingText": "2024-10-21",
      "url": "https://api.congress.gov/v3/bill/118/hr/9888?format=json"
    }
  ],
  "pagination": {
    "count": 409645,
    "next": "https://api.congress.gov/v3/bill?sort=updateDate desc&offset=20&limit=20&format=json"
  },
  "request": {
    "contentType": "application/json",
    "format": "json"
  }
}